{
  "redirect": {
    "JSON_POPUP_WAIT": "Server Ready - Comrade45 ",
    "MODE_NO_ADS": true,
    "MODE_BACKUP_ADS": true,
    "MODE_TES_IKLAN_FAN_ADMOB_STARTAPP_APPDODEAL": false,
    "PENGATURAN_IKLAN_BANNER": "ADMOB",
    "PENGATURAN_IKLAN_INTER": "ADMOB",
    "PENGATURAN_IKLAN_NATIVE": "ADMOB",
    "INTERS_COUNT_WEB": 5,
    "ENABLE_STRAP": true,
    "ENABLE_STRAP_SPLAHSCREEN": false,
    "ADS_ON_EXIT_DIALOG": false,
    "STARAPPID": "208000751",
    "ADMOB_BANNER": "",
    "ADMOB_INTER": "",
    "ADMOB_NATIV": "",
    "ADMOB_REWARD": "",
    "UNITY_BANNER": "Banner_Android",
    "UNITY_INTERSTITIAL": "Interstitial_Android",
    "UNITY_REWARD": "Rewarded_Android",
    "UNITY_GAME_ID": "4376293",
    "UNITY_TEST_MODE": false,
    "APPLOVIN_BANNER_ID": "56b663622e7e1017",
    "APPLOVIN_INTERSTITIAL_ID": "d52c58c457fcea58",
    "HPK_ALIENDROID": "Gb Whatsapp,whatsapp downloading,yo whatsapp",
    "HPK_ADMOB1": "Whatsapp",
    "HPK_ADMOB2": "Skincare",
    "HPK_ADMOB3": "Jualan Online",
    "HPK_ADMOB4": "Bisnis",
    "HPK_ADMOB5": "Wallpaper pink",
    "FAN_BANNER": "YOUR_PLACEMENT_ID",
    "FAN_INTER": "YOUR_PLACEMENT_ID",
    "FAN_NATIVE": "YOUR_PLACEMENT_ID",
    "APPODEAL_APP_ID": "7d9c996e9fc4164f64a5e5c5edd8b3e16571524539845d0d",
    "TAPDAQ_APP_ID": "",
    "TAPDAQ_CLIENT_KEY": "",
    "BUTTON_RATING": "RATING",
    "BUTTON_SHARE": "SHARE TO FRIEND",
    "BUTTON_START": "START",
    "EXIT_POPUP_DIALOG": "jika kamu menikmati aplikasi ini bantu kami dengan rating bintang 5 ya klik tombol rating",
    "RATE_BUTTON": "RATING 5 STARS",
    "LATER_BUTTON": "LATER",
    "ENABLE_SHARE_BUTTON": true,
    "SHARE_TXT": "wah aplikasi ini bagus banget aku udah nyobain coba deh kamu donwload sekarang juga",
    "MORE_BUTTON": "SHARE VIA WHATSAPP",
    "URL_MORE_APPS": "https://play.google.com/store/apps/details?id=packagename",
    "REDIRECT_TRAFFIC": false,
    "LINK_REDIRECT": "https://play.google.com/store/apps/details?id=packagename"
  }
}
