{
  "redirect": {
    "JSON_POPUP_WAIT": "Server Ready - Comrade45",
    "MODE_NO_ADS": true,
    "MODE_BACKUP_ADS": true,
    "MODE_TES_IKLAN_FAN_ADMOB_STARTAPP_APPDODEAL": false,
    //     * mode pengaturan iklan
    //     * Mode ADMOB       Admob backup Unity Backup Startapp
    //     * Mode FAN         FAN backup Unity Backup Startapp
    //     * Mode APPODEAL    Appodeal backup Unity Backup Startapp
    //     * Mode UNITY       Unity backup Startapp
    //     * Mode APPLOVIN    Applovin backup Unity Backup Startapp
    //     * Mode TAPDAQ    TAPDAQ backup Unity Backup Startapp
    "PENGATURAN_IKLAN_BANNER": "ADMOB",
    "PENGATURAN_IKLAN_INTER": "ADMOB",
    "PENGATURAN_IKLAN_NATIVE": "ADMOB",
    "INTERS_COUNT_WEB": 5,
    "ENABLE_STRAP": true,
    "ENABLE_STRAP_SPLAHSCREEN": false,
    "ADS_ON_EXIT_DIALOG": true, // CTR NAIK PESAT
    "STARAPPID": "204193337",
    "ADMOB_BANNER": "ca-app-pub-6858122351347975/4584832090",
    "ADMOB_INTER": "ca-app-pub-6858122351347975/5554638144",
    "ADMOB_NATIV": "ca-app-pub-6858122351347975/9645587085",
    "ADMOB_REWARD": "",
    "UNITY_BANNER": "Banner_Android",
    "UNITY_INTERSTITIAL": "Interstitial_Android",
    "UNITY_REWARD": "Rewarded_Android",
    "UNITY_GAME_ID": "4235483",
    "UNITY_TEST_MODE": false,
    "APPLOVIN_BANNER_ID": "461081ca2c379c5a",
    "APPLOVIN_INTERSTITIAL_ID": "5e4b7c23948a694f",
    "HPK_ALIENDROID": "kuota data 30gb",
    "HPK_ADMOB1": "Kuota Data",
    "HPK_ADMOB2": "bank jenius",
    "HPK_ADMOB3": "bank jago",
    "HPK_ADMOB4": "telkomsel",
    "HPK_ADMOB5": "donasi",
    "FAN_BANNER": "YOUR_PLACEMENT_ID",
    "FAN_INTER": "YOUR_PLACEMENT_ID",
    "FAN_NATIVE": "YOUR_PLACEMENT_ID",
    "APPODEAL_APP_ID": "6aa6a4236bdad6e68b84053f2408fc7b2f877e3e6ce60a2c",
    "TAPDAQ_APP_ID": "61530f1186c31c4e07c10e51",
    "TAPDAQ_CLIENT_KEY": "26403763-c3b7-474d-8616-6507a7995348",
    "BUTTON_RATING": "RATING",
    "BUTTON_SHARE": "SHARE TO FRIEND",
    "BUTTON_START": "START",
    "EXIT_POPUP_DIALOG": "
jika kamu menikmati aplikasi ini

bantu kami dengan rating bintang 5 ya

klik tombol rating

",
"RATE_BUTTON": "RATING 5 STARS",
    "LATER_BUTTON": "LATER",
    "ENABLE_SHARE_BUTTON": true,
    "SHARE_TXT": "
wah aplikasi ini bagus banget
aku udah nyobain 
coba deh kamu donwload sekrang juga

",
"MORE_BUTTON": "SHARE VIA WHATSAPP",
    "URL_MORE_APPS": "https://play.google.com/store/apps/details?id=packagename",
    "REDIRECT_TRAFFIC": false,
    "LINK_REDIRECT": "https://play.google.com/store/apps/details?id=packagename"
  }
}
