{
  "redirect": {
    "JSON_POPUP_WAIT": "Ready - Asetto Corsa wikihow",
    "MODE_NO_ADS": false,
    "MODE_BACKUP_ADS": true,
    "MODE_TES_IKLAN_FAN_ADMOB_STARTAPP_APPDODEAL": false,
    "PENGATURAN_IKLAN_BANNER": "ADMOB",
    "PENGATURAN_IKLAN_INTER": "ADMOB",
    "PENGATURAN_IKLAN_NATIVE": "ADMOB",
    "INTERS_COUNT_WEB": 5,
    "ENABLE_STRAP": true,
    "ENABLE_STRAP_SPLAHSCREEN": false,
    "ADS_ON_EXIT_DIALOG": false,
    "STARAPPID": "210869621",
    "ADMOB_BANNER": "ca-app-pub-4039207615659380/9331428135",
    "ADMOB_INTER": "ca-app-pub-4039207615659380/4732679906",
    "ADMOB_NATIV": "ca-app-pub-4039207615659380/5662618197",
    "ADMOB_REWARD": "",
    "UNITY_BANNER": "Banner_Android",
    "UNITY_INTERSTITIAL": "Interstitial_Android",
    "UNITY_REWARD": "Rewarded_Android",
    "UNITY_GAME_ID": "4448307",
    "UNITY_TEST_MODE": false,
    "APPLOVIN_BANNER_ID": "",
    "APPLOVIN_INTERSTITIAL_ID": "",
    "HPK_ALIENDROID": "",
    "HPK_ADMOB1": "",
    "HPK_ADMOB2": "",
    "HPK_ADMOB3": "",
    "HPK_ADMOB4": "",
    "HPK_ADMOB5": "",
    "FAN_BANNER": "YOUR_PLACEMENT_ID",
    "FAN_INTER": "YOUR_PLACEMENT_ID",
    "FAN_NATIVE": "YOUR_PLACEMENT_ID",
    "APPODEAL_APP_ID": "6aa6a4236bdad6e68b84053f2408fc7b2f877e3e6ce60a2c",
    "TAPDAQ_APP_ID": "61530f1186c31c4e07c10e51",
    "TAPDAQ_CLIENT_KEY": "26403763-c3b7-474d-8616-6507a7995348",
    "BUTTON_RATING": "RATING",
    "BUTTON_SHARE": "SHARE TO FRIEND",
    "BUTTON_START": "START",
    "EXIT_POPUP_DIALOG": "jika kamu menikmati aplikasi ini bantu kami dengan rating bintang 5 ya klik tombol rating",
    "RATE_BUTTON": "RATING 5 STARS",
    "LATER_BUTTON": "LATER",
    "ENABLE_SHARE_BUTTON": true,
     "SHARE_TXT": "wah aplikasi ini bagus banget aku udah nyobain coba deh kamu donwload sekarang juga",
    "MORE_BUTTON": "SHARE VIA WHATSAPP",
    "URL_MORE_APPS": "https://play.google.com/store/apps/details?id=packagename",
    "REDIRECT_TRAFFIC": false,
    "LINK_REDIRECT": "https://play.google.com/store/apps/details?id=packagename"
  }
}
