{
  "redirect": {
    "AKUN_ADMOB":"Tips Pocket Drawing Guide",
    "JSON_POPUP_WAIT": "Welcome to Pocket Drawing Calligraphy",
    "MODE_NO_ADS": false,
    "MODE_BACKUP_ADS": true,
    "MODE_TES_IKLAN_FAN_ADMOB_STARTAPP_APPDODEAL": false,
    "PENGATURAN_IKLAN_BANNER": "APPLOVIN",
    "PENGATURAN_IKLAN_INTER": "ADMOB",
    "PENGATURAN_IKLAN_NATIVE": "ADMOB",
    "INTERS_COUNT_WEB": 5,
    "ENABLE_STRAP": true,
    "ENABLE_STRAP_SPLAHSCREEN": true,
    "ADS_ON_EXIT_DIALOG": true,
    "STARAPPID": "210832939",
    "ADMOB_BANNER": "ca-app-pub-1608921460837227/6447672510",
    "ADMOB_INTER": "ca-app-pub-1608921460837227/8043895027",
    "ADMOB_NATIV": "ca-app-pub-1608921460837227/8630395990",
    "ADMOB_REWARD": "",
    "UNITY_BANNER": "Banner_Android",
    "UNITY_INTERSTITIAL": "Interstitial_Android",
    "UNITY_REWARD": "Rewarded_Android",
    "UNITY_GAME_ID": "4491885",
    "UNITY_TEST_MODE": false,
    "APPLOVIN_BANNER_ID": "982ab0f5679d0322",
    "APPLOVIN_INTERSTITIAL_ID": "afb764b29e77033b",
    "HPK_ALIENDROID": "",
    "HPK_ADMOB1": "",
    "HPK_ADMOB2": "",
    "HPK_ADMOB3": "",
    "HPK_ADMOB4": "",
    "HPK_ADMOB5": "",
    "FAN_BANNER" : "",
    "FAN_INTER" : "",
    "FAN_NATIVE" : "4142277689209653_4142299102540845",
    "APPODEAL_APP_ID": "6aa6a4236bdad6e68b84053f2408fc7b2f877e3e6ce60a2c",
    "TAPDAQ_APP_ID": "61a6cbea86c31c4e07c1139d",
    "TAPDAQ_CLIENT_KEY": "26403763-c3b7-474d-8616-6507a7995348",
    "BUTTON_RATING": "RATING",
    "BUTTON_SHARE": "SHARE TO FRIEND",
    "BUTTON_START": "START",
    "EXIT_POPUP_DIALOG": "jika kamu menikmati aplikasi ini bantu kami dengan rating bintang 5 ya klik tombol rating",
    "RATE_BUTTON": "RATING 5 STARS",
    "LATER_BUTTON": "LATER",
    "ENABLE_SHARE_BUTTON": true,
     "SHARE_TXT": "wah aplikasi ini bagus banget aku udah nyobain coba deh kamu donwload sekarang juga",
    "MORE_BUTTON": "SHARE VIA WHATSAPP",
    "URL_MORE_APPS": "https://play.google.com/store/apps/details?id=packagename",
    "REDIRECT_TRAFFIC": false,
    "LINK_REDIRECT": "https://play.google.com/store/apps/developer?id=Medika+Dev"
  }
}
